{
    "count": 785,
    "page": 1,
    "page_count": 24,
    "page_size": 24,
    "products": [
        {
            "ecoscore_grade": "c",
            "ecoscore_score": 53,
            "product_name": "Guacamole",
            "product_name_en": "Guacamole"
        },
        {
            "ecoscore_grade": "c",
            "ecoscore_score": 58,
            "product_name": "Sauce apéritif Guacamole",
            "product_name_en": "Sauce apéritif Guacamole"
        },
        {
            "ecoscore_grade": "c",
            "ecoscore_score": 58,
            "product_name": "Guacamole",
            "product_name_en": ""
        },
        {
            "ecoscore_grade": "c",
            "ecoscore_score": 56,
            "product_name": "guacamole"
        },
        {
            "ecoscore_grade": "c",
            "ecoscore_score": 55,
            "product_name": "Guacamole à base d'avocat frais"
        },
        {
            "ecoscore_grade": "c",
            "ecoscore_score": 57,
            "product_name": "Guacamole extra"
        },
        {
            "ecoscore_grade": "b",
            "ecoscore_score": 60,
            "product_name": "guacamole",
            "product_name_en": "Guacamole Mild"
        },
        {
            "ecoscore_grade": "c",
            "ecoscore_score": 53,
            "product_name": "Guacamole saveur"
        },
        {
            "ecoscore_grade": "c",
            "ecoscore_score": 56,
            "product_name": "Guacamole",
            "product_name_en": ""
        },
        {
            "ecoscore_grade": "c",
            "ecoscore_score": 58,
            "product_name": "Guacamole"
        },
        {
            "ecoscore_grade": "c",
            "ecoscore_score": 53,
            "product_name": "Guacamole"
        },
        {
            "ecoscore_grade": "c",
            "ecoscore_score": 58,
            "product_name": "Guacamole - morceaux d'avocat et poivron"
        },
        {
            "ecoscore_grade": "c",
            "ecoscore_score": 53,
            "product_name": "Salsa de tomate con pimientos"
        },
        {
            "ecoscore_grade": "b",
            "ecoscore_score": 72,
            "product_name": "Guacamole Bio"
        },
        {
            "ecoscore_grade": "c",
            "ecoscore_score": 53,
            "product_name": "Frische Guacamole (Frutasmontosa)"
        },
        {
            "ecoscore_grade": "c",
            "ecoscore_score": 53,
            "product_name": "Guacamole fabriqué avec des avocats frais",
            "product_name_en": "Apéro du poissonnier"
        },
        {
            "ecoscore_grade": "c",
            "ecoscore_score": 53,
            "product_name": "Guacamole"
        },
        {
            "ecoscore_grade": "c",
            "ecoscore_score": 58,
            "product_name": "Guacamole"
        },
        {
            "ecoscore_grade": "c",
            "ecoscore_score": 53,
            "product_name": "Guacamole"
        },
        {
            "ecoscore_grade": "c",
            "ecoscore_score": 55,
            "product_name": "Chargement…"
        },
        {
            "ecoscore_grade": "c",
            "ecoscore_score": 53,
            "product_name": "Guacamole"
        },
        {
            "ecoscore_grade": "c",
            "ecoscore_score": 53,
            "product_name": "Guacamole purée et morceaux d'avocats."
        },
        {
            "ecoscore_grade": "c",
            "ecoscore_score": 53,
            "product_name": "Salsa Dip guacamole style",
            "product_name_en": "Salsa Dip guacamole style"
        },
        {
            "ecoscore_grade": "c",
            "ecoscore_score": 57,
            "product_name": "Guacamole"
        }
    ],
    "skip": 0
}